<?xml version="1.0" encoding="UTF-8"?>
<session version="1.0">
<refactoring comment="Delete resource &apos;wheelWizards&apos;" deleteContents="false" description="Delete resource &apos;wheelWizards&apos;" element1="/wheelWizards" flags="7" id="org.eclipse.ltk.core.refactoring.delete.resources" resources="1" stamp="1715442850263"/>
</session>